{
  "kind": "collectionType",
  "collectionName": "writers",
  "info": {
    "name": "Writer",
    "description": ""
  },
  "options": {
    "increments": true,
    "timestamps": true,
    "draftAndPublish": false
  },
  "attributes": {
    "name": {
      "type": "string"
    },
    "picture": {
      "model": "file",
      "via": "related",
      "allowedTypes": [
        "images"
      ],
      "plugin": "upload",
      "required": false,
      "pluginOptions": {}
    },
    "articles": {
      "via": "author",
      "collection": "article"
    },
    "email": {
      "type": "string"
    },
    "bio": {
      "type": "text",
      "maxLength": 240
    }
  }
}
